<?xml version="1.0" encoding="UTF-8"?>
<svg viewBox="0 0 512 512" version="1.1" xmlns="http://www.w3.org/2000/svg" xmlns:xlink="http://www.w3.org/1999/xlink">
    <desc>Created with Sketch.</desc>
    <g id="icono-movilidad" stroke="none" stroke-width="1" fill="none" fill-rule="evenodd">
        <path d="M448,488 C425.944,488 408,470.056 408,448 C408,425.944 425.944,408 448,408 C470.056,408 488,425.944 488,448 C488,470.056 470.056,488 448,488 L448,488 Z M383.848,355.768 C370.744,414.784 319.36,456 258.904,456 L151.36,456 C151.736,453.376 152,450.72 152,448 C152,445.28 151.736,442.624 151.36,440 L254.6,440 C311,440 359.112,401.584 371.616,346.592 L384.768,288.72 L391.28,322.344 L383.848,355.768 Z M96,488 C73.944,488 56,470.056 56,448 C56,425.944 73.944,408 96,408 C118.056,408 136,425.944 136,448 C136,470.056 118.056,488 96,488 L96,488 Z M352,128 C352,114.768 362.768,104 376,104 C389.232,104 400,114.768 400,128 C400,141.232 389.232,152 376,152 C362.768,152 352,141.232 352,128 L352,128 Z M422.272,398.312 L377.664,167.832 C383.568,167.584 389.096,166.032 394.08,163.48 L438.48,392.872 C432.728,393.864 427.28,395.712 422.272,398.312 L422.272,398.312 Z M336,40 C336,31.176 343.176,24 352,24 C360.824,24 368,31.176 368,40 C368,48.824 360.824,56 352,56 C343.176,56 336,48.824 336,40 L336,40 Z M272,40 C272,35.584 275.584,32 280,32 L321.136,32 C320.464,34.576 320,37.224 320,40 C320,42.776 320.464,45.424 321.136,48 L280,48 C275.584,48 272,44.416 272,40 L272,40 Z M454.68,392.44 L408.08,151.656 C412.992,145.008 416,136.88 416,128 C416,105.944 398.056,88 376,88 C375.136,88 374.336,88.2 373.488,88.256 L369.872,66.536 C378.384,60.784 384,51.04 384,40 C384,22.352 369.648,8 352,8 C343.952,8 336.68,11.08 331.056,16 L280,16 C266.768,16 256,26.768 256,40 C256,53.232 266.768,64 280,64 L331.056,64 C336.68,68.92 343.952,72 352,72 C352.864,72 353.672,71.816 354.512,71.744 L357.968,92.488 C345,99.112 336,112.464 336,128 C336,144.68 346.272,158.968 360.816,164.968 L377.216,249.72 L356.008,343.056 C345.176,390.712 303.488,424 254.6,424 L180.64,424 C170.032,386.552 135.464,360 96,360 C47.48,360 8,399.48 8,448 L24,448 C24,408.296 56.296,376 96,376 C126.736,376 153.808,395.696 163.832,424 L146.52,424 C137.512,405.112 118.28,392 96,392 C65.128,392 40,417.128 40,448 C40,478.872 65.128,504 96,504 C118.28,504 137.504,490.888 146.52,472 L258.904,472 C326.112,472 383.28,426.68 398.856,361.536 L408.016,408.864 C398.128,418.968 392,432.776 392,448 C392,478.872 417.128,504 448,504 C478.872,504 504,478.872 504,448 C504,419.392 482.416,395.76 454.68,392.44 L454.68,392.44 Z" id="Fill-1" fill="#282270"></path>
        <path d="M448,456 C443.584,456 440,452.416 440,448 C440,443.584 443.584,440 448,440 C452.416,440 456,443.584 456,448 C456,452.416 452.416,456 448,456 M448,424 C434.768,424 424,434.768 424,448 C424,461.232 434.768,472 448,472 C461.232,472 472,461.232 472,448 C472,434.768 461.232,424 448,424" id="Fill-3" fill="#282270"></path>
        <path d="M96,456 C91.584,456 88,452.416 88,448 C88,443.584 91.584,440 96,440 C100.416,440 104,443.584 104,448 C104,452.416 100.416,456 96,456 M96,424 C82.768,424 72,434.768 72,448 C72,461.232 82.768,472 96,472 C109.232,472 120,461.232 120,448 C120,434.768 109.232,424 96,424" id="Fill-5" fill="#282270"></path>
        <polygon id="Fill-7" fill="#282270" points="192 408 288 408 288 392 192 392"></polygon>
        <path d="M411.9873,256 L440.0003,250 C440.0003,250 451.0003,244 456.0003,262 C461.0003,280 472.0003,323 472.0003,323 C472.0003,323 482.0003,346 461.0003,350 C440.0003,354 431.7303,358 431.7303,358 L411.9873,256 Z" id="Fill-9" fill="#13DB00"></path>
    </g>
</svg>
