<?xml version="1.0" encoding="UTF-8"?>
<svg viewBox="0 0 512 512" version="1.1" xmlns="http://www.w3.org/2000/svg" xmlns:xlink="http://www.w3.org/1999/xlink">
    <g id="icono-personas" stroke="none" stroke-width="1" fill="none" fill-rule="evenodd">
        <g id="Group" transform="translate(0.000000, 51.000000)" fill-rule="nonzero">
            <path d="M452.925644,168.420225 C435.811896,160.096521 403.724848,160 402.3673,160 C398.298586,160 395,163.20907 395,167.167369 C395,171.125668 398.298586,174.334738 402.3673,174.334738 C410.647163,174.335693 434.687155,175.576126 446.33633,181.24217 C447.394275,181.757265 448.518034,182 449.625093,182 C452.327419,182 454.929549,180.547413 456.2203,178.036923 C458.040515,174.496243 456.56509,170.191043 452.925644,168.420225 Z" id="Path" fill="#282270"></path>
            <path d="M344.306,0 C348.300071,0 351.565143,3.13183815 351.793268,7.08061094 L351.806,7.52260773 L351.806,87.9543296 C351.806,100.085914 349.329068,111.880349 344.438573,123.065737 L343.787,124.521224 L343.787,144.258541 C343.787,168.478329 333.679,191.872636 316.054,208.442433 C315.113333,209.326423 314.152667,210.178317 313.179111,211.009704 L311.71,212.242855 L311.71,236.957128 L325.681,251.679373 C327.060583,253.132992 327.760382,255.022344 327.746505,256.920966 L327.725,257.438682 L371.446,273.384604 L386.56,269.053588 C392.147462,267.451841 392.693792,266.730236 392.747211,265.373532 L392.753,264.90813 L392.751,254.039466 C378.528352,243.720566 369.049022,226.699069 368.702813,207.661558 L368.693,206.581841 L368.693,194.294915 L364.852,186.589759 C362.289813,181.449937 360.859656,175.732697 360.690895,169.986806 L360.674,168.837408 L360.674,168.38906 C360.674,142.348996 381.569286,121.110723 407.425137,120.656997 L408.27,120.649589 L480.443,120.649589 C484.437071,120.649589 487.702143,123.781427 487.930268,127.7302 L487.943,128.172197 L487.943,166.938702 C487.943,173.877201 486.404343,180.825474 483.482931,187.117053 L482.919,188.288865 L479.924,194.295919 L479.924,208.605924 C479.924,223.823658 473.927,238.041387 463.037,248.641243 C461.1645,250.464221 459.182972,252.129086 457.116144,253.646865 L455.866,254.53997 L455.866,264.910136 C455.866,266.198006 456.661834,267.355117 457.835857,267.826872 L458.137,267.930212 L489.112,276.806889 C502.342982,280.599268 511.656402,292.733825 511.990698,306.48102 L512,307.246369 L512,369.477392 C512,373.631878 508.642,377 504.5,377 C500.505929,377 497.240857,373.868162 497.012732,369.919389 L497,369.477392 L497,307.246369 C497,300.087148 492.347257,293.690445 485.609222,291.467839 L484.991,291.277377 L454.015,282.4007 C453.1765,282.160729 452.3695,281.855875 451.591891,281.500949 L450.824,281.129881 L431.808,300.203202 L431.808,369.477392 C431.808,373.631878 428.45,377 424.308,377 C420.313929,377 417.048857,373.868162 416.820732,369.919389 L416.808,369.477392 L416.808,300.203202 L397.659,280.99648 C395.383444,282.115398 393.11579,282.819044 391.327302,283.337772 L388.827,284.054671 C395.545333,291.067647 399.640681,300.467827 399.906239,310.534682 L399.92,311.578388 L399.92,369.477392 C399.92,373.631878 396.562,377 392.42,377 C388.425929,377 385.160857,373.868162 384.932732,369.919389 L384.92,369.477392 L384.92,311.578388 C384.92,301.491516 378.716902,292.374945 369.411878,288.667336 L368.742,288.411765 L320.091,270.667438 L299.837,301.139015 C297.248,305.034722 293.099,307.533231 288.453,307.994618 C287.936,308.045772 287.42,308.070847 286.907,308.070847 C283.049118,308.070847 279.345367,306.637723 276.477719,304.015652 L275.95,303.510141 L263.594,291.116895 L248.594,291.116895 L236.238,303.510141 C233.304,306.451982 229.379,308.069844 225.281,308.069844 C224.767,308.069844 224.252,308.044768 223.734,307.993615 C219.31019,307.554199 215.336268,305.267053 212.731354,301.684967 L212.351,301.138012 L192.098,270.665432 L143.446,288.409759 C133.994047,291.857283 127.57209,300.81945 127.278506,310.857601 L127.268,311.576382 L127.268,369.475386 C127.268,373.629872 123.91,377 119.768,377 C115.773929,377 112.508857,373.866297 112.280732,369.917391 L112.268,369.475386 L112.268,311.576382 C112.268,304.351813 114.248952,297.439293 117.761662,291.462659 L118.3,290.573261 L110.128,286.474945 L101.411,294.783916 C95.317,300.592372 87.493,303.498104 79.672,303.498104 C72.1498846,303.498104 64.6305429,300.813446 58.6439376,295.441454 L57.933,294.783916 L49.215,286.473942 L24.152,299.042715 C18.7016552,301.776586 15.2444043,307.177173 15.012454,313.244794 L15,313.897357 L15,369.47338 C15,373.627866 11.642,376.995988 7.5,376.995988 C3.50592857,376.995988 0.240857143,373.86415 0.012732234,369.915377 L0,369.47338 L0,313.897357 C0,302.106308 6.3836343,291.478199 16.7167104,285.960857 L17.444,285.584268 L37.571,275.490934 C15.958,266.062599 9.139,252.844876 8.811,252.186899 C7.755,250.069535 7.755,247.576042 8.811,245.458678 C13.7786757,235.491535 14.7353944,217.89754 15.2660275,202.715795 L15.5310625,194.830368 C15.6664375,190.963654 15.81925,187.29864 16.057,183.942804 C18.613,147.859362 45.962,120.649589 79.672,120.649589 C113.382,120.649589 140.73,147.860366 143.287,183.942804 C143.485125,186.738707 143.624266,189.749709 143.743484,192.913122 L144.125959,204.059716 C144.66816,218.925291 145.710541,235.785689 150.533,245.459681 C151.507769,247.41417 151.582751,249.689149 150.757947,251.692945 L150.484008,252.283909 C149.78188,253.63552 142.930906,265.979398 122.787104,275.070683 L121.802,275.507986 L129.048,279.141907 C131.516375,277.39102 134.203719,275.907373 137.077205,274.746739 L138.32,274.269263 L184.465,257.439685 C184.321083,255.542901 184.893924,253.616619 186.14963,252.087301 L186.509,251.680376 L200.48,236.958131 L200.48,211.662109 C181.185306,195.229304 168.806988,170.440762 168.412707,142.863737 L168.403,141.505266 L168.403,124.52323 C163.30275,113.391317 160.613307,101.638535 160.398042,89.5367818 L160.384,87.9563356 L160.384,71.8689882 C160.384,32.6371747 191.887354,0.645556594 230.853935,0.00964741442 L232.037,0 L344.306,0 Z M303.176,249.787688 L267.791,274.0486 L286.558,292.87217 C286.611,292.923324 286.731,293.052713 286.976,293.021619 C287.159,293.003565 287.25875,292.918372 287.314484,292.850668 L287.357,292.791929 L310.683,257.698462 L303.176,249.787688 Z M209.014,249.785682 L201.508,257.696456 L224.833,292.789923 C224.874,292.85211 224.97,292.995541 225.214,293.019613 C225.39775,293.039172 225.51175,292.974666 225.579203,292.919187 L244.399,274.045591 L209.014,249.785682 Z M63.116,261.865987 L63.116,269.884084 C63.116,272.248289 62.59193,274.515814 61.629083,276.557967 L61.292,277.230161 L68.267,283.87814 C74.502125,289.822054 84.1842163,289.971605 90.5935433,284.324935 L91.08,283.879143 L98.054,277.232167 C96.9938,275.240783 96.36452,273.009728 96.249266,270.667693 L96.23,269.883081 L96.231,261.871002 C90.99,263.501904 85.431,264.390574 79.674,264.390574 C73.91,264.390574 68.348,263.505916 63.116,261.865987 Z M407.751,261.731583 L407.752,264.906124 C407.7528,266.213252 407.64544,267.422807 407.4504,268.547114 L407.288,269.374553 L424.308,286.444854 L441.408,269.294312 C441.1248,268.163714 440.94784,266.996526 440.888384,265.806614 L440.866,264.910136 L440.866,261.881032 C435.578,263.526979 430.022,264.389571 424.33,264.389571 C423.754,264.389571 423.181,264.381547 422.603,264.363493 C417.920273,264.223071 413.380521,263.447683 409.045352,262.139815 L407.751,261.731583 Z M215.48,221.952034 L215.48,235.994235 L256.095,263.839919 L296.71,235.994235 L296.71,222.252938 C284.315,228.779552 270.513,232.217886 256.172,232.217886 C254.213,232.217886 252.248,232.154696 250.271,232.02631 C237.756,231.213868 225.989,227.650158 215.48,221.952034 Z M131.031,230.050372 C127.045296,239.701301 120.465014,247.918028 112.192035,253.893575 L111.23,254.57307 L111.229,263.545033 C125.244,258.483823 132.314,251.673355 135.301,248.022383 C133.257,242.66428 131.93,236.527838 131.031,230.050372 Z M28.32,230.007242 C27.421,236.499754 26.093,242.650238 24.045,248.020377 L24.5397182,248.611404 C27.7039879,252.295103 34.4387347,258.385141 47.0758888,263.137128 L48.115,263.519958 L48.115,254.503862 C39.383,248.445655 32.456,239.954135 28.32,230.007242 Z M79.674,135.69681 C66.976,135.69681 55.082,140.754009 46.183,149.937608 C37.363,159.038961 31.978,171.494393 31.02,185.011015 C30.789,188.270365 30.6402716,191.950202 30.5070027,195.858451 L30.33,201.195654 L30.33,201.195654 C30.731,201.128452 31.141,201.085323 31.561,201.085323 C35.703,201.085323 39.061,204.453445 39.061,208.60793 C39.061,231.070437 57.28,249.345359 79.676,249.345359 C99.816,249.345359 116.738,234.679283 119.791,214.931936 C108.414535,189.805321 80.2773638,185.039306 68.8188649,184.150716 L66.764,184.020036 L55.504,195.732235 C52.629,198.722221 47.881,198.809483 44.899,195.925817 C42.03628,193.157497 41.8425136,188.657817 44.3752086,185.656037 L44.706,185.28885 L58.238,171.212546 C59.4770909,169.923217 61.1302314,169.124618 62.8961443,168.948627 L63.6329769,168.910584 C65.4190525,168.883163 77.7487222,168.870006 91.956,173.448265 C108.239,178.696036 120.841,187.988964 129.001,200.598861 L128.842294,195.856111 C128.707383,191.948642 128.558222,188.269585 128.328,185.011015 C127.37,171.494393 121.985,159.038961 113.165,149.937608 C104.265,140.754009 92.372,135.69681 79.674,135.69681 Z M472.943,135.695807 L408.27,135.695807 C390.553757,135.695807 376.092484,149.945846 375.68292,167.619519 L375.674,168.838411 C375.674,172.328567 376.427729,175.822093 377.860473,179.003008 L378.268,179.862542 L382.901,189.156473 C383.335167,190.026588 383.595722,190.971232 383.670514,191.938166 L383.693,192.520583 L383.693,206.583847 C383.693,229.497711 401.35,248.672336 423.054,249.325299 C434.141,249.668329 444.642,245.582049 452.591,237.844796 C460.295469,230.345446 464.646761,220.366697 464.911193,209.646611 L464.924,208.606927 L464.924,192.520583 C464.924,191.546823 465.112194,190.585601 465.476431,189.687416 L465.716,189.156473 L469.502,181.561648 C471.602933,177.346179 472.779618,172.66064 472.927172,167.949471 L472.943,166.939705 L472.943,135.695807 Z M336.806,15.0462185 L232.037,15.0462185 C201.11138,15.0462185 175.892882,40.0295624 175.391605,70.9317687 L175.384,71.8699912 L175.384,87.9563356 C175.384,98.9092525 177.831,109.545217 182.657,119.569342 C183.066167,120.419397 183.311444,121.337712 183.381838,122.275531 L183.403,122.840172 L183.403,141.504263 C183.403,181.37609 213.201,214.543769 251.242,217.014194 C268.574683,218.140506 285.189698,213.275224 298.887193,203.215625 L300.038,202.357145 L300.038,202.357145 C302.024,200.837578 303.945,199.206677 305.796,197.46745 C320.32548,183.807337 328.457736,165.38662 328.777214,145.481081 L328.787,144.260547 L328.787,122.841175 C328.787,121.708772 329.042,120.590411 329.533,119.570345 C334.149174,109.982051 336.58872,99.8339654 336.792128,89.3841583 L336.806,87.9573386 L336.806,15.0462185 Z" id="Shape" fill="#282270"></path>
            <path d="M472.5,315 C468.358,315 465,318.298677 465,322.367504 L465,369.632496 C465,373.701323 468.358,377 472.5,377 C476.642,377 480,373.701323 480,369.632496 L480,322.367504 C480,318.299659 476.642,315 472.5,315 Z" id="Path" fill="#282270"></path>
            <path d="M39.5,322 C35.358,322 32,325.282194 32,329.330689 L32,366.669311 C32,370.717806 35.358,374 39.5,374 C43.642,374 47,370.717806 47,366.669311 L47,329.330689 C47,325.283171 43.642,322 39.5,322 Z" id="Path" fill="#282270"></path>
            <path d="M319.807889,89.7067899 C291.501789,62.0611651 232.278114,67.3464441 208.127221,70.9018005 C200.520318,72.0216208 195,78.3087929 195,85.8512554 L195,102.690468 C195,106.727279 198.350909,110 202.484162,110 C206.617416,110 209.968325,106.727279 209.968325,102.690468 L209.968325,85.8502808 C209.968325,85.6017567 210.13597,85.3892929 210.359497,85.3561564 C220.006084,83.936158 239.148575,81.7452476 258.981606,83.0365982 C282.320218,84.5540571 299.224446,90.2759588 309.224285,100.043443 C312.1471,102.898059 316.886072,102.898059 319.807889,100.043443 C322.730704,97.1888269 322.730704,92.5604312 319.807889,89.7067899 Z" id="Path" fill="#282270"></path>
            <path d="M167.5,327 C163.358,327 160,330.352508 160,334.487733 L160,366.512267 C160,370.647492 163.358,374 167.5,374 C171.642,374 175,370.647492 175,366.512267 L175,334.487733 C175,330.353506 171.642,327 167.5,327 Z" id="Path" fill="#282270"></path>
            <path d="M255.5,273 C251.358,273 248,276.394664 248,280.581887 L248,367.418113 C248,371.605336 251.358,375 255.5,375 C259.642,375 263,371.605336 263,367.418113 L263,280.581887 C263,276.395675 259.642,273 255.5,273 Z" id="Path-Copy" fill="#13DB00"></path>
            <path d="M344.5,327 C340.358,327 337,330.352508 337,334.487733 L337,366.512267 C337,370.647492 340.358,374 344.5,374 C348.642,374 352,370.647492 352,366.512267 L352,334.487733 C352,330.353506 348.642,327 344.5,327 Z" id="Path" fill="#282270"></path>
        </g>
    </g>
</svg>
